Decodificador7Segmentos/simulation/modelsim/deco_hex7seg_test.vcd
$date
	Mon Aug 12 16:24:37 2019
$end
$version
	ModelSim Version 10.5b
$end
$timescale
	1ps
$end

$scope module deco_hex7seg_test $end

$scope module DUT $end
$var wire 1 ! display [6] $end
$var wire 1 " display [5] $end
$var wire 1 # display [4] $end
$var wire 1 $ display [3] $end
$var wire 1 % display [2] $end
$var wire 1 & display [1] $end
$var wire 1 ' display [0] $end
$var wire 1 ( point $end
$var wire 1 ) inputHex [3] $end
$var wire 1 * inputHex [2] $end
$var wire 1 + inputHex [1] $end
$var wire 1 , inputHex [0] $end
$var wire 1 - enable $end
$upscope $end
$upscope $end
$enddefinitions $end
#0
$dumpvars
1'
0&
0%
0$
0#
0"
0!
1(
0,
0+
0*
0)
1-
$end
#20000
1,
1&
1%
1$
1!
#30000
0,
1+
0'
0%
0$
1#
0!
#40000
1,
1%
0#
#50000
0,
0+
1*
0&
1$
1!
#60000
1,
0$
1"
0!
#70000
0,
1+
0%
#80000
1,
1'
1&
1%
1$
0"
#90000
0,
0+
0*
1)
0'
0&
0%
0$
#100000
1,
1%
#110000
0,
1+
0%
1$
#120000
1,
0$
1"
1!
#130000
0,
0+
1*
1'
1#
0!
#140000
1,
0'
1&
0#
0"
1!
#150000
0,
1+
0&
1#
1"
0!
#160000
1,
1$
